pi@raspberrypi:~/Documents/FIX PROGRAM SKRIPSI $ /bin/python3 "/home/pi/Documents/FIX PROGRAM SKRIPSI/PROGRAM_GPS_AUTONOMOUS_CAR.py"
/home/pi/Documents/FIX PROGRAM SKRIPSI/PROGRAM_GPS_AUTONOMOUS_CAR.py:9: RuntimeWarning: This channel is already in use, continuing anyway.  Use GPIO.setwarnings(False) to disable warnings.
  GPIO.setup(11, GPIO.OUT)
Keluar

Masuk
data ke 1

mulai bergerak

Waypoint tercapai =  []

===============================
Masuk
data ke 2

titik awal =  ( 117.12343299999999 , -0.5335734999999999 )
titik tujuan = ( 117.123378 , -0.533475 )

Longitude latitude terukur sekarang = ( 117.12343316666666 , -0.5335733333333333 )

Error jalur = 2.267722150837396e-07  derajat
Error sudut = 0 derajat

Long Lat seharusnya = ( 117.12343296866959 , -0.5335734438900716 )

lurus

Waypoint tercapai =  []

===============================
Masuk
data ke 3

titik awal =  ( 117.12343299999999 , -0.5335734999999999 )
titik tujuan = ( 117.123378 , -0.533475 )

Longitude latitude terukur sekarang = ( 117.12343416666666 , -0.5335701666666667 )

Error jalur = 2.6437060478954945e-06  derajat
Error sudut = 46.703495050269005 derajat

Long Lat seharusnya = ( 117.12343185842059 , -0.5335714555350288 )

belok kiri

Waypoint tercapai =  []

===============================
Masuk
data ke 4

titik awal =  ( 117.12343299999999 , -0.5335734999999999 )
titik tujuan = ( 117.123378 , -0.533475 )

Longitude latitude terukur sekarang = ( 117.12342933333333 , -0.5335638333333333 )

Error jalur = 1.511322311609774e-06  derajat
Error sudut = -8.171422256810702 derajat

Long Lat seharusnya = ( 117.12342801378276 , -0.533564570138224 )

lurus

Waypoint tercapai =  []

===============================
Masuk
data ke 5

titik awal =  ( 117.12343299999999 , -0.5335734999999999 )
titik tujuan = ( 117.123378 , -0.533475 )

Longitude latitude terukur sekarang = ( 117.12342349999999 , -0.5335555000000001 )

Error jalur = 4.808752664806705e-07  derajat
Error sudut = -5.814093543853072 derajat

Long Lat seharusnya = ( 117.12342308014297 , -0.5335557344379281 )

lurus

Waypoint tercapai =  []

===============================
Masuk
data ke 6

titik awal =  ( 117.12343299999999 , -0.5335734999999999 )
titik tujuan = ( 117.123378 , -0.533475 )

Longitude latitude terukur sekarang = ( 117.12342016666668 , -0.5335453333333333 )

Error jalur = 2.526995923840364e-06  derajat
Error sudut = 11.025220946713654 derajat

Long Lat seharusnya = ( 117.12341796032136 , -0.533546565302798 )

lurus

Waypoint tercapai =  []

===============================
Masuk
data ke 7

titik awal =  ( 117.12343299999999 , -0.5335734999999999 )
titik tujuan = ( 117.123378 , -0.533475 )

Longitude latitude terukur sekarang = ( 117.12341583333334 , -0.5335336666666667 )

Error jalur = 4.431291594890586e-06  derajat
Error sudut = 8.801491490072465 derajat

Long Lat seharusnya = ( 117.12341196432851 , -0.5335358270246924 )

lurus

Waypoint tercapai =  []

===============================
Masuk
data ke 8

titik awal =  ( 117.12343299999999 , -0.5335734999999999 )
titik tujuan = ( 117.123378 , -0.533475 )

Longitude latitude terukur sekarang = ( 117.12340633333334 , -0.5335241666666667 )

Error jalur = 7.682185800039343e-07  derajat
Error sudut = -15.822073295314203 derajat

Long Lat seharusnya = ( 117.12340566259404 , -0.5335245411911471 )

lurus

Waypoint tercapai =  []

===============================
Masuk
data ke 9

titik awal =  ( 117.12343299999999 , -0.5335734999999999 )
titik tujuan = ( 117.123378 , -0.533475 )

Longitude latitude terukur sekarang = ( 117.12340466666667 , -0.5335101666666666 )

Error jalur = 6.138361902797849e-06  derajat
Error sudut = 22.388952160652742 derajat

Long Lat seharusnya = ( 117.12339930720172 , -0.5335131592613082 )

belok kiri

Waypoint tercapai =  []

===============================
Masuk
data ke 10

titik awal =  ( 117.12343299999999 , -0.5335734999999999 )
titik tujuan = ( 117.123378 , -0.533475 )

Longitude latitude terukur sekarang = ( 117.12339850000002 , -0.5334965 )

Error jalur = 7.417002642791973e-06  derajat
Error sudut = 4.892101616518941 derajat

Long Lat seharusnya = ( 117.12339202414114 , -0.5335001159618116 )

belok kiri

Waypoint tercapai =  []

===============================
Masuk
data ke 11

titik awal =  ( 117.12343299999999 , -0.5335734999999999 )
titik tujuan = ( 117.123378 , -0.533475 )

Longitude latitude terukur sekarang = ( 117.12338749999999 , -0.5334873333333333 )

Error jalur = 2.281756893385051e-06  derajat
Error sudut = -21.01650226394282 derajat

Long Lat seharusnya = ( 117.12338550777531 , -0.5334884457430541 )

lurus

Waypoint tercapai =  []

===============================
Masuk
data ke 12

titik awal =  ( 117.12343299999999 , -0.5335734999999999 )
titik tujuan = ( 117.123378 , -0.533475 )

Longitude latitude terukur sekarang = ( 117.12338316666667 , -0.5334773333333334 )

Error jalur = 3.373513685735798e-06  derajat
Error sudut = 5.749233962012189 derajat

Long Lat seharusnya = ( 117.12338022121824 , -0.5334789779999686 )
waypoint 1  tercapai

lurus

Waypoint tercapai =  [1]

===============================
Masuk
data ke 13

titik awal =  ( 117.123378 , -0.533475 )
titik tujuan = ( 117.123306 , -0.533511 )

Longitude latitude terukur sekarang = ( 117.12337716666667 , -0.5334678333333333 )

Error jalur = 6.782739533749022e-06  derajat
Error sudut = 0 derajat

Long Lat seharusnya = ( 117.1233802 , -0.5334738999999905 )

belok kiri

Waypoint tercapai =  [1]

===============================
Masuk
data ke 14

titik awal =  ( 117.123378 , -0.533475 )
titik tujuan = ( 117.123306 , -0.533511 )

Longitude latitude terukur sekarang = ( 117.12336866666668 , -0.5334713333333333 )

Error jalur = 7.453559925311093e-06  derajat
Error sudut = 4.184916106664088 derajat

Long Lat seharusnya = ( 117.12337200000002 , -0.5334780000000119 )

belok kiri

Waypoint tercapai =  [1]

===============================
Masuk
data ke 15

titik awal =  ( 117.123378 , -0.533475 )
titik tujuan = ( 117.123306 , -0.533511 )

Longitude latitude terukur sekarang = ( 117.12335866666666 , -0.5334795 )

Error jalur = 4.621207160937906e-06  derajat
Error sudut = -12.67231588862053 derajat

Long Lat seharusnya = ( 117.12336073333333 , -0.5334836333333345 )

lurus

Waypoint tercapai =  [1]

===============================
Masuk
data ke 16

titik awal =  ( 117.123378 , -0.533475 )
titik tujuan = ( 117.123306 , -0.533511 )

Longitude latitude terukur sekarang = ( 117.12334600000001 , -0.5334828333333334 )

Error jalur = 7.304488727186188e-06  derajat
Error sudut = 11.821488319743402 derajat

Long Lat seharusnya = ( 117.1233492666667 , -0.533489366666696 )

belok kiri

Waypoint tercapai =  [1]

===============================
Masuk
data ke 17

titik awal =  ( 117.123378 , -0.533475 )
titik tujuan = ( 117.123306 , -0.533511 )

Longitude latitude terukur sekarang = ( 117.12333650000001 , -0.5334924999999999 )

Error jalur = 2.9068883697909273e-06  derajat
Error sudut = -18.933160422875662 derajat

Long Lat seharusnya = ( 117.12333779999999 , -0.5334950999999594 )

lurus

Waypoint tercapai =  [1]

===============================
Masuk
data ke 18

titik awal =  ( 117.123378 , -0.533475 )
titik tujuan = ( 117.123306 , -0.533511 )

Longitude latitude terukur sekarang = ( 117.12332533333334 , -0.5334978333333333 )

Error jalur = 3.1304951669782845e-06  derajat
Error sudut = 1.035353185680052 derajat

Long Lat seharusnya = ( 117.12332673333333 , -0.5335006333333093 )

lurus

Waypoint tercapai =  [1]

===============================
Masuk
data ke 19

titik awal =  ( 117.123378 , -0.533475 )
titik tujuan = ( 117.123306 , -0.533511 )

Longitude latitude terukur sekarang = ( 117.12331333333334 , -0.5335016666666667 )

Error jalur = 5.068420748957332e-06  derajat
Error sudut = 8.849258467199617 derajat

Long Lat seharusnya = ( 117.1233156 , -0.5335061999999774 )

belok kiri

Waypoint tercapai =  [1]

===============================
Masuk
data ke 20

titik awal =  ( 117.123378 , -0.533475 )
titik tujuan = ( 117.123306 , -0.533511 )

Longitude latitude terukur sekarang = ( 117.12330616666668 , -0.5335110000000001 )

Error jalur = -7.453560541773975e-08  derajat
Error sudut = -90 derajat

Long Lat seharusnya = ( 117.12330613333336 , -0.5335109333333563 )
waypoint 2  tercapai

belok kanan

Waypoint tercapai =  [1, 2]

===============================
Masuk
data ke 21

titik awal =  ( 117.123306 , -0.533511 )
titik tujuan = ( 117.123367 , -0.533619 )

Longitude latitude terukur sekarang = ( 117.12329700000001 , -0.533516 )

Error jalur = 1.029537444056427e-05  derajat
Error sudut = 0 derajat

Long Lat seharusnya = ( 117.1233059643159 , -0.5335109368215771 )

belok kiri

Waypoint tercapai =  [1, 2]

===============================
Masuk
data ke 22

titik awal =  ( 117.123306 , -0.533511 )
titik tujuan = ( 117.123367 , -0.533619 )

Longitude latitude terukur sekarang = ( 117.12329483333333 , -0.5335256666666666 )

Error jalur = 1.6935904408895847e-05  derajat
Error sudut = 42.09176677231451 derajat

Long Lat seharusnya = ( 117.12330957964468 , -0.5335173377315515 )

belok kiri

Waypoint tercapai =  [1, 2]

===============================
Masuk
data ke 23

titik awal =  ( 117.123306 , -0.533511 )
titik tujuan = ( 117.123367 , -0.533619 )

Longitude latitude terukur sekarang = ( 117.12330233333333 , -0.5335361666666666 )

Error jalur = 1.5569368801663104e-05  derajat
Error sudut = -6.0792729872448925 derajat

Long Lat seharusnya = ( 117.12331588978445 , -0.533528509782236 )

belok kiri

Waypoint tercapai =  [1, 2]

===============================
Masuk
data ke 24

titik awal =  ( 117.123306 , -0.533511 )
titik tujuan = ( 117.123367 , -0.533619 )

Longitude latitude terukur sekarang = ( 117.12330316666666 , -0.5335485 )

Error jalur = 2.0909204110743707e-05  derajat
Error sudut = 25.59294362749094 derajat

Long Lat seharusnya = ( 117.12332137258154 , -0.5335382170295558 )

belok kiri

Waypoint tercapai =  [1, 2]

===============================
Masuk
data ke 25

titik awal =  ( 117.123306 , -0.533511 )
titik tujuan = ( 117.123367 , -0.533619 )

Longitude latitude terukur sekarang = ( 117.12331049999999 , -0.5335593333333333 )

Error jalur = 1.9851717857456133e-05  derajat
Error sudut = -4.636573151658962 derajat

Long Lat seharusnya = ( 117.1233277851479 , -0.5335495704257199 )

belok kiri

Waypoint tercapai =  [1, 2]

===============================
Masuk
data ke 26

titik awal =  ( 117.123306 , -0.533511 )
titik tujuan = ( 117.123367 , -0.533619 )

Longitude latitude terukur sekarang = ( 117.12331850000001 , -0.5335703333333334 )

Error jalur = 1.8295721535503952e-05  derajat
Error sudut = -6.568968673704772 derajat

Long Lat seharusnya = ( 117.12333443032175 , -0.533561335651611 )

belok kiri

Waypoint tercapai =  [1, 2]

===============================
Masuk
data ke 27

titik awal =  ( 117.123306 , -0.533511 )
titik tujuan = ( 117.123367 , -0.533619 )

Longitude latitude terukur sekarang = ( 117.12332083333334 , -0.5335831666666666 )

Error jalur = 2.257538321022917e-05  derajat
Error sudut = 19.153558344214858 derajat

Long Lat seharusnya = ( 117.12334049001194 , -0.5335720642833811 )

belok kiri

Waypoint tercapai =  [1, 2]

===============================
Masuk
data ke 28

titik awal =  ( 117.123306 , -0.533511 )
titik tujuan = ( 117.123367 , -0.533619 )

Longitude latitude terukur sekarang = ( 117.12332883333332 , -0.5335933333333334 )

Error jalur = 2.0609560618490987e-05  derajat
Error sudut = -8.740280317880433 derajat

Long Lat seharusnya = ( 117.12334677834471 , -0.533583197725046 )

belok kiri

Waypoint tercapai =  [1, 2]

===============================
Masuk
data ke 29

titik awal =  ( 117.123306 , -0.533511 )
titik tujuan = ( 117.123367 , -0.533619 )

Longitude latitude terukur sekarang = ( 117.12333500000001 , -0.5336035 )

Error jalur = 2.0240045064722112e-05  derajat
Error sudut = -1.780810212167264 derajat

Long Lat seharusnya = ( 117.12335262326945 , -0.5335935461163328 )

belok kiri

Waypoint tercapai =  [1, 2]

===============================
Masuk
data ke 30

titik awal =  ( 117.123306 , -0.533511 )
titik tujuan = ( 117.123367 , -0.533619 )

Longitude latitude terukur sekarang = ( 117.1233405 , -0.5336146666666667 )

Error jalur = 2.0942796430001545e-05  derajat
Error sudut = 3.2364380673927724 derajat

Long Lat seharusnya = ( 117.12335873516413 , -0.5336043671758127 )

belok kiri

Waypoint tercapai =  [1, 2]

===============================
Masuk
data ke 31

titik awal =  ( 117.123306 , -0.533511 )
titik tujuan = ( 117.123367 , -0.533619 )

Longitude latitude terukur sekarang = ( 117.12335 , -0.5336211666666667 )

Error jalur = 1.586766861735948e-05  derajat
Error sudut = -26.161250500946686 derajat

Long Lat seharusnya = ( 117.1233638161846 , -0.5336133630809251 )

belok kiri

Waypoint tercapai =  [1, 2]

===============================
Masuk
data ke 32

titik awal =  ( 117.123306 , -0.533511 )
titik tujuan = ( 117.123367 , -0.533619 )

Longitude latitude terukur sekarang = ( 117.12335733333333 , -0.533628 )

Error jalur = 1.28430160538447e-05  derajat
Error sudut = -17.56296013617363 derajat

Long Lat seharusnya = ( 117.12336851591378 , -0.5336216839128932 )

belok kiri

Waypoint tercapai =  [1, 2]

===============================
Masuk
data ke 33

titik awal =  ( 117.123306 , -0.533511 )
titik tujuan = ( 117.123367 , -0.533619 )

Longitude latitude terukur sekarang = ( 117.123363 , -0.5336341666666667 )

Error jalur = 1.0941690705576822e-05  derajat
Error sudut = -13.122085994872357 derajat

Long Lat seharusnya = ( 117.12337252707184 , -0.5336287856353501 )

belok kiri

Waypoint tercapai =  [1, 2]

===============================
Masuk
data ke 34

titik awal =  ( 117.123306 , -0.533511 )
titik tujuan = ( 117.123367 , -0.533619 )

Longitude latitude terukur sekarang = ( 117.12336933333333 , -0.5336293333333334 )

Error jalur = 3.0501827116140757e-06  derajat
Error sudut = -97.89094426486304 derajat

Long Lat seharusnya = ( 117.12337198916696 , -0.5336278332791557 )

belok kanan

Waypoint tercapai =  [1, 2]

===============================
Masuk
data ke 35

titik awal =  ( 117.123306 , -0.533511 )
titik tujuan = ( 117.123367 , -0.533619 )

Longitude latitude terukur sekarang = ( 117.12337233333334 , -0.533621 )

Error jalur = -3.6602192623234255e-06  derajat
Error sudut = -90 derajat

Long Lat seharusnya = ( 117.12336914633302 , -0.533622800064994 )
waypoint 3  tercapai

belok kanan

Waypoint tercapai =  [1, 2, 3]

===============================
pi@raspberrypi:~/Documents/FIX PROGRAM SKRIPSI $ 