waypoint = 0 ==========================================================================================================================
Mulai Bergerak
===============================
[0, 1]
titik awal = sumbu ( 0 , 0 )
titik tujuan = sumbu( 3 , 0 )

gerak awal = sumbu( 0 , 0 )
gerak akhir = sumbu( 1 , -1 )

m jalur =  0.0
m gerak =  -1.0
ERROR awal = 0.0  meter
di dalam jalur
ERROR akhir = 1.0  meter
di luar jalur
Error sudut = 45.0

Error jarak awal = 3.0
di luar waypoint
Error jarak akhir = 2.23606797749979
di luar waypoint
===============================
[0, 1, 2]
titik awal = sumbu ( 0 , 0 )
titik tujuan = sumbu( 3 , 0 )

gerak awal = sumbu( 1 , -1 )
gerak akhir = sumbu( 2 , 1 )

m jalur =  0.0
m gerak =  2.0
ERROR awal = 1.0  meter
di luar jalur
ERROR akhir = -1.0  meter
di luar jalur
Error sudut = -63.43494882292201

Error jarak awal = 2.23606797749979
di luar waypoint
Error jarak akhir = 1.4142135623730951
di luar waypoint
===============================
[0, 1, 2, 3]
titik awal = sumbu ( 0 , 0 )
titik tujuan = sumbu( 3 , 0 )

gerak awal = sumbu( 2 , 1 )
gerak akhir = sumbu( 3 , 0 )

m jalur =  0.0
m gerak =  -1.0
ERROR awal = -1.0  meter
di luar jalur
ERROR akhir = 0.0  meter
di dalam jalur
Error sudut = 45.0

Error jarak awal = 1.4142135623730951
di luar waypoint
Error jarak akhir = 0.0
di dalam waypoint
waypoint 1  tercapai
waypoint = 1 ==========================================================================================================================
[3, 3]
titik awal = sumbu ( 3 , 0 )
titik tujuan = sumbu( 6 , 3 )

gerak awal = sumbu( 3 , 0 )
gerak akhir = sumbu( 3 , 0 )

m jalur =  1.0
m gerak =  gerak vertikal
ERROR awal = 0.0  meter
di dalam jalur
ERROR akhir = 0.0  meter
di dalam jalur
Error sudut = -45.0

Error jarak awal = 4.242640687119285
di luar waypoint
Error jarak akhir = 4.242640687119285
di luar waypoint
===============================
[3, 3, 4.5]
titik awal = sumbu ( 3 , 0 )
titik tujuan = sumbu( 6 , 3 )

gerak awal = sumbu( 3 , 0 )
gerak akhir = sumbu( 4.5 , 0 )

m jalur =  1.0
m gerak =  0.0
ERROR awal = 0.0  meter
di dalam jalur
ERROR akhir = 1.0606601717798212  meter
di luar jalur
Error sudut = 45.0

Error jarak awal = 4.242640687119285
di luar waypoint
Error jarak akhir = 3.3541019662496847
di luar waypoint
===============================
[3, 3, 4.5, 4.5]
titik awal = sumbu ( 3 , 0 )
titik tujuan = sumbu( 6 , 3 )

gerak awal = sumbu( 4.5 , 0 )
gerak akhir = sumbu( 4.5 , 3 )

m jalur =  1.0
m gerak =  gerak vertikal
ERROR awal = 1.0606601717798212  meter
di luar jalur
ERROR akhir = -1.0606601717798212  meter
di luar jalur
Error sudut = -45.0

Error jarak awal = 3.3541019662496847
di luar waypoint
Error jarak akhir = 1.5
di luar waypoint
===============================
[3, 3, 4.5, 4.5, 6]
titik awal = sumbu ( 3 , 0 )
titik tujuan = sumbu( 6 , 3 )

gerak awal = sumbu( 4.5 , 3 )
gerak akhir = sumbu( 6 , 3 )

m jalur =  1.0
m gerak =  0.0
ERROR awal = -1.0606601717798212  meter
di luar jalur
ERROR akhir = 0.0  meter
di dalam jalur
Error sudut = 45.0

Error jarak awal = 1.5
di luar waypoint
Error jarak akhir = 0.0
di dalam waypoint
waypoint 2  tercapai
waypoint = 2 ==========================================================================================================================
[6, 6]
titik awal = sumbu ( 6 , 3 )
titik tujuan = sumbu( 6 , 6 )

gerak awal = sumbu( 6 , 3 )
gerak akhir = sumbu( 6 , 3 )

m jalur =  jalur vertikal
m gerak =  gerak vertikal
ERROR awal = 0  meter
di dalam jalur
ERROR akhir = 0  meter
di dalam jalur
Traceback (most recent call last):
  File "C:\xampp\htdocs\skripsi-grenyf\GPS.py", line 204, in <module>
    if g_vektor_gerak>0:
TypeError: '>' not supported between instances of 'str' and 'int'
[Finished in 547ms]